{
    "type": "code",
    "modid": "th3dungeon",
    "name": "Th3Dungeon",
    "authors": [
        "Th3Dilli",
        "NiclAss"
    ],
    "description": "A mod to bring procedural dungeon generation to Vintage Story",
    "version": "0.1.1",
    "dependencies": {
        "game": "1.16.0"
    }
}